Using the Tidyverse to analyze the location of Confederate Memorials
…
#extract the data
confMon <- data.world::query(
  data.world::qry_sql("SELECT * FROM CivilWarMamorials"),
  dataset = link
)

Tibbles

Once you have the data in memory, you can now transform it to a tibble. A tibble is similar to a Dataframe but a little different. I recommend reading Data Science with R by Garrett Grolemund and Hadley Wickham if you want to know more. For know, just know that they allow for easy data pipping that we will be using shortly.

require(tidyverse)
as.tibble(confMon)

## # A tibble: 1,528 x 6
##             state         city             nameofartifact
##             <chr>        <chr>                      <chr>
##  1        Alabama     Anniston Major John Pelham Monument
##  2        Alabama     Ashville       Confederate Monument
##  3        Alabama  Centreville       Confederate Monument
##  4        Alabama        Selma   Selma Navy Yard Memorial
##  5 South Carolina St. Matthews           “Lest We Forget”
##  6 South Carolina St. Matthews             Stonewall Lane
##  7 South Carolina  Summerville           Beauregard Court
##  8 South Carolina  Summerville            Stonewall Drive
##  9 South Carolina Timmonsville       Robert E. Lee Avenue
## 10 South Carolina Timmonsville            Stonewall Drive
## # ... with 1,518 more rows, and 3 more variables: type <chr>, year <chr>,
## #   civilwarstatus <chr>
…
