…
Tibbles
-------

Once you have the data in memory, you can transform it to a tibble. A tibble is similar to a Dataframe but a little different. I recommend reading Data Science with R by Garrett Grolemund and Hadley Wickham if you want to know more. For know, just know that they allow for easy data pipping that we will be using shortly.

``` r
require(tidyverse)
as.tibble(confMon)
```

    ## # A tibble: 1,528 x 6
    ##             state         city             nameofartifact
    ##             <chr>        <chr>                      <chr>
    ##  1        Alabama     Anniston Major John Pelham Monument
    ##  2        Alabama     Ashville       Confederate Monument
    ##  3        Alabama  Centreville       Confederate Monument
    ##  4        Alabama        Selma   Selma Navy Yard Memorial
    ##  5 South Carolina St. Matthews           “Lest We Forget”
    ##  6 South Carolina St. Matthews             Stonewall Lane
    ##  7 South Carolina  Summerville           Beauregard Court
    ##  8 South Carolina  Summerville            Stonewall Drive
    ##  9 South Carolina Timmonsville       Robert E. Lee Avenue
    ## 10 South Carolina Timmonsville            Stonewall Drive
    ## # ... with 1,518 more rows, and 3 more variables: type <chr>, year <chr>,
    ## #   civilwarstatus <chr>

Summarizing with tidyverse
--------------------------

The main benefit of using a tibble over a dataframe is the ease with which you can summaries your data. Without a tibble you may need to take multiple steps to subset, transform, and summarize your data. With a tibble you can do all of this with a singe chain of commands. In the code below, I am able to filter the data set to only monuments, create a table of counts by state and sort the table in only five rows of text. Additionally, I did not need to create a new dataframe.

``` r
as.tibble(confMon)%>% # Create the tibble
  group_by(state,civilwarstatus)%>% # Set the group by
  filter(type == 'Monument')%>%
  summarise(count = n())%>% # Determine how you want to summarise
  arrange(by=desc(count)) # Organize the data
```

    ## # A tibble: 24 x 3
    ## # Groups:   state [24]
    ##             state    civilwarstatus count
    ##             <chr>             <chr> <int>
    ##  1 North Carolina Confederate State    50
    ##  2        Georgia Confederate State    49
    ##  3       Virginia Confederate State    45
    ##  4       Kentucky      Border State    35
    ##  5 South Carolina Confederate State    34
    ##  6        Alabama Confederate State    31
    ##  7          Texas Confederate State    26
    ##  8      Louisiana Confederate State    23
    ##  9    Mississippi Confederate State    22
    ## 10       Arkansas Confederate State    21
    ## # ... with 14 more rows
…
